^C:\USERS\AVASILENKO\DESKTOP\COMPLEX_ARITHMETIC\COMPLEX_ARITHMETIC\ARITHMETIC_NUMBER.CPP
/c /ZI /nologo /W3 /WX- /Od /Oy- /D _MBCS /Gm /EHsc /RTC1 /MDd /GS /fp:precise /Zc:wchar_t /Zc:forScope /Fo"Debug\\" /Fd"Debug\vc100.pdb" /Gd /TP /analyze- /errorReport:prompt C:\USERS\AVASILENKO\DESKTOP\COMPLEX_ARITHMETIC\COMPLEX_ARITHMETIC\ARITHMETIC_NUMBER.CPP
^C:\USERS\AVASILENKO\DESKTOP\COMPLEX_ARITHMETIC\COMPLEX_ARITHMETIC\COMPLEX_ARITHMETIC.CPP
/c /ZI /nologo /W3 /WX- /Od /Oy- /D _MBCS /Gm /EHsc /RTC1 /MDd /GS /fp:precise /Zc:wchar_t /Zc:forScope /Fo"Debug\\" /Fd"Debug\vc100.pdb" /Gd /TP /analyze- /errorReport:prompt C:\USERS\AVASILENKO\DESKTOP\COMPLEX_ARITHMETIC\COMPLEX_ARITHMETIC\COMPLEX_ARITHMETIC.CPP
