^C:\USERS\AVASILENKO\DESKTOP\COMPLEX_ARITHMETIC\COMPLEX_ARITHMETIC\DEBUG\ARITHMETIC_NUMBER.OBJ|C:\USERS\AVASILENKO\DESKTOP\COMPLEX_ARITHMETIC\COMPLEX_ARITHMETIC\DEBUG\COMPLEX_ARITHMETIC.OBJ
C:\WINDOWS\GLOBALIZATION\SORTING\SORTDEFAULT.NLS
C:\PROGRAM FILES (X86)\MICROSOFT SDKS\WINDOWS\V7.0A\LIB\KERNEL32.LIB
C:\PROGRAM FILES (X86)\MICROSOFT SDKS\WINDOWS\V7.0A\LIB\USER32.LIB
C:\PROGRAM FILES (X86)\MICROSOFT SDKS\WINDOWS\V7.0A\LIB\GDI32.LIB
C:\PROGRAM FILES (X86)\MICROSOFT SDKS\WINDOWS\V7.0A\LIB\WINSPOOL.LIB
C:\PROGRAM FILES (X86)\MICROSOFT SDKS\WINDOWS\V7.0A\LIB\COMDLG32.LIB
C:\PROGRAM FILES (X86)\MICROSOFT SDKS\WINDOWS\V7.0A\LIB\ADVAPI32.LIB
C:\PROGRAM FILES (X86)\MICROSOFT SDKS\WINDOWS\V7.0A\LIB\SHELL32.LIB
C:\PROGRAM FILES (X86)\MICROSOFT SDKS\WINDOWS\V7.0A\LIB\OLE32.LIB
C:\PROGRAM FILES (X86)\MICROSOFT SDKS\WINDOWS\V7.0A\LIB\OLEAUT32.LIB
C:\PROGRAM FILES (X86)\MICROSOFT SDKS\WINDOWS\V7.0A\LIB\UUID.LIB
C:\PROGRAM FILES (X86)\MICROSOFT SDKS\WINDOWS\V7.0A\LIB\ODBC32.LIB
C:\PROGRAM FILES (X86)\MICROSOFT SDKS\WINDOWS\V7.0A\LIB\ODBCCP32.LIB
C:\USERS\AVASILENKO\DESKTOP\COMPLEX_ARITHMETIC\COMPLEX_ARITHMETIC\DEBUG\ARITHMETIC_NUMBER.OBJ
C:\USERS\AVASILENKO\DESKTOP\COMPLEX_ARITHMETIC\COMPLEX_ARITHMETIC\DEBUG\COMPLEX_ARITHMETIC.OBJ
C:\WINDOWS\SYSTEM32\TZRES.DLL
C:\USERS\AVASILENKO\DESKTOP\COMPLEX_ARITHMETIC\DEBUG\COMPLEX_ARITHMETIC.EXE
C:\PROGRAM FILES (X86)\MICROSOFT VISUAL STUDIO 10.0\VC\BIN\1033\LINKUI.DLL
C:\PROGRAM FILES (X86)\MICROSOFT VISUAL STUDIO 10.0\VC\LIB\MSVCRTD.LIB
C:\PROGRAM FILES (X86)\MICROSOFT VISUAL STUDIO 10.0\VC\LIB\OLDNAMES.LIB
