^C:\USERS\AVASILENKO\DESKTOP\ALGORITHMS\ALGORITHMS\DEBUG\ALGORITHMS.EXE.INTERMEDIATE.MANIFEST
C:\WINDOWS\GLOBALIZATION\SORTING\SORTDEFAULT.NLS
C:\WINDOWS\MICROSOFT.NET\FRAMEWORK\V2.0.50727\MSCORWKS.DLL
C:\WINDOWS\MICROSOFT.NET\FRAMEWORK\V4.0.30319\CLR.DLL
C:\PROGRAM FILES (X86)\MICROSOFT SDKS\WINDOWS\V7.0A\BIN\MT.EXE.CONFIG
C:\USERS\AVASILENKO\DESKTOP\ALGORITHMS\DEBUG\ALGORITHMS.EXE
